summary-class-2 – My_Blog
…
library(skimr)

Attaching package: 'skimr'

The following object is masked from 'package:mosaic':

    n_missing

MPG DATASET

#gg - allows you to plot, dplyr - glimpse function, name - space - usage (family name) sometimes different packages have same name but different function so better to use n-s-u format, mosiac - categorically spreads the variable in quant n qual.

mpg

# A tibble: 234 × 11
   manufacturer model      displ  year   cyl trans drv     cty   hwy fl    class
   <chr>        <chr>      <dbl> <int> <int> <chr> <chr> <int> <int> <chr> <chr>
 1 audi         a4           1.8  1999     4 auto… f        18    29 p     comp…
 2 audi         a4           1.8  1999     4 manu… f        21    29 p     comp…
 3 audi         a4           2    2008     4 manu… f        20    31 p     comp…
 4 audi         a4           2    2008     4 auto… f        21    30 p     comp…
 5 audi         a4           2.8  1999     6 auto… f        16    26 p     comp…
 6 audi         a4           2.8  1999     6 manu… f        18    26 p     comp…
 7 audi         a4           3.1  2008     6 auto… f        18    27 p     comp…
 8 audi         a4 quattro   1.8  1999     4 manu… 4        18    26 p     comp…
 9 audi         a4 quattro   1.8  1999     4 auto… 4        16    25 p     comp…
10 audi         a4 quattro   2    2008     4 manu… 4        20    28 p     comp…
# ℹ 224 more rows
…
Rows: 599 Columns: 1
── Column specification ────────────────────────────────────────────────────────
Delimiter: ","
chr (1): Age;Gender;Grade;AMAS;RCMAS;Arith

ℹ Use `spec()` to retrieve the full column specification for this data.
ℹ Specify the column types or set `show_col_types = FALSE` to quiet this message.

math_anxiety

# A tibble: 599 × 1
   `Age;Gender;Grade;AMAS;RCMAS;Arith`
   <chr>                              
 1 137,8;Boy;Secondary;9;20;6         
 2 140,7;Boy;Secondary;18;8;6         
 3 137,9;Girl;Secondary;23;26;5       
 4 142,8;Girl;Secondary;19;18;7       
 5 135,6;Boy;Secondary;23;20;1        
 6 135,0;Girl;Secondary;27;33;1       
 7 133,6;Boy;Secondary;22;23;4        
 8 139,3;Boy;Secondary;17;11;7        
 9 131,7;Girl;Secondary;28;32;2       
10 134,8;Boy;Secondary;20;30;6        
# ℹ 589 more rows
…
math_anxiety <- read_delim(file = "../../data/MathAnxiety.csv", delim = ";")

Rows: 599 Columns: 6
── Column specification ────────────────────────────────────────────────────────
Delimiter: ";"
chr (2): Gender, Grade
dbl (3): AMAS, RCMAS, Arith
num (1): Age

ℹ Use `spec()` to retrieve the full column specification for this data.
ℹ Specify the column types or set `show_col_types = FALSE` to quiet this message.

math_anxiety

# A tibble: 599 × 6
     Age Gender Grade      AMAS RCMAS Arith
   <dbl> <chr>  <chr>     <dbl> <dbl> <dbl>
 1  1378 Boy    Secondary     9    20     6
 2  1407 Boy    Secondary    18     8     6
 3  1379 Girl   Secondary    23    26     5
 4  1428 Girl   Secondary    19    18     7
 5  1356 Boy    Secondary    23    20     1
 6  1350 Girl   Secondary    27    33     1
 7  1336 Boy    Secondary    22    23     4
 8  1393 Boy    Secondary    17    11     7
 9  1317 Girl   Secondary    28    32     2
10  1348 Boy    Secondary    20    30     6
# ℹ 589 more rows
…
