quantities-class4 – My_Blog
…
pop <- read_csv("../../data/populations.csv")

Rows: 16400 Columns: 4
── Column specification ────────────────────────────────────────────────────────
Delimiter: ","
chr (2): country_code, country_name
dbl (2): year, value

ℹ Use `spec()` to retrieve the full column specification for this data.
ℹ Specify the column types or set `show_col_types = FALSE` to quiet this message.

pop

# A tibble: 16,400 × 4
   country_code country_name  year value
   <chr>        <chr>        <dbl> <dbl>
 1 ABW          Aruba         1960 54608
 2 ABW          Aruba         1961 55811
 3 ABW          Aruba         1962 56682
 4 ABW          Aruba         1963 57475
 5 ABW          Aruba         1964 58178
 6 ABW          Aruba         1965 58782
 7 ABW          Aruba         1966 59291
 8 ABW          Aruba         1967 59522
 9 ABW          Aruba         1968 59471
10 ABW          Aruba         1969 59330
# ℹ 16,390 more rows
…
